plot_label,true_LA_5_plants,true_LA_1_plant
FPSB007_lot3_1,0.073970111,0.014794022
FPSB007_lot3_10,0.085926333,0.017185267
FPSB007_lot3_11,0.087405778,0.017481156
FPSB007_lot3_12,0.079500111,0.015900022
FPSB007_lot3_13,0.052270111,0.010454022
FPSB007_lot3_14,0.060350111,0.012070022
FPSB007_lot3_15,0.068479,0.0136958
FPSB007_lot3_16,0.069381667,0.013876333
FPSB007_lot3_17,0.103292667,0.020658533
FPSB007_lot3_18,0.076920889,0.015384178
FPSB007_lot3_19,0.127973111,0.025594622
FPSB007_lot3_2,0.059520778,0.011904156
FPSB007_lot3_20,0.113826889,0.022765378
FPSB007_lot3_21,0.063826889,0.012765378
FPSB007_lot3_22,0.075498667,0.015099733
FPSB007_lot3_23,0.075952,0.0151904
FPSB007_lot3_24,0.106997222,0.021399444
FPSB007_lot3_25,0.094341667,0.018868333
FPSB007_lot3_26,0.090900889,0.018180178
FPSB007_lot3_27,0.133103556,0.026620711
FPSB007_lot3_28,0.102087556,0.020417511
FPSB007_lot3_29,0.082663,0.0165326
FPSB007_lot3_3,0.091387222,0.018277444
FPSB007_lot3_30,0.089053444,0.017810689
FPSB007_lot3_31,0.066701556,0.013340311
FPSB007_lot3_32,0.069056778,0.013811356
FPSB007_lot3_33,0.068417444,0.013683489
FPSB007_lot3_34,0.059413111,0.011882622
FPSB007_lot3_35,0.064605111,0.012921022
FPSB007_lot3_36,0.074210778,0.014842156
FPSB007_lot3_37,0.077899333,0.015579867
FPSB007_lot3_38,0.052316333,0.010463267
FPSB007_lot3_39,0.091163333,0.018232667
FPSB007_lot3_4,0.053453111,0.010690622
FPSB007_lot3_40,0.132034,0.0264068
FPSB007_lot3_41,0.054781778,0.010956356
FPSB007_lot3_42,0.130411444,0.026082289
FPSB007_lot3_43,0.101328111,0.020265622
FPSB007_lot3_44,0.091613889,0.018322778
FPSB007_lot3_45,0.078597,0.0157194
FPSB007_lot3_46,0.086619667,0.017323933
FPSB007_lot3_47,0.068981667,0.013796333
FPSB007_lot3_48,0.086307667,0.017261533
FPSB007_lot3_49,0.136665889,0.027333178
FPSB007_lot3_5,0.100633889,0.020126778
FPSB007_lot3_50,0.069203667,0.013840733
FPSB007_lot3_51,0.096812778,0.019362556
FPSB007_lot3_52,0.084325556,0.016865111
FPSB007_lot3_53,0.083231,0.0166462
FPSB007_lot3_54,0.080293556,0.016058711
FPSB007_lot3_55,0.110500333,0.022100067
FPSB007_lot3_56,0.124330111,0.024866022
FPSB007_lot3_57,0.100470889,0.020094178
FPSB007_lot3_58,0.082099889,0.016419978
FPSB007_lot3_59,0.100119778,0.020023956
FPSB007_lot3_6,0.050793222,0.010158644
FPSB007_lot3_60,0.084734111,0.016946822
FPSB007_lot3_61,0.118105667,0.023621133
FPSB007_lot3_62,0.097531222,0.019506244
FPSB007_lot3_63,0.122265556,0.024453111
FPSB007_lot3_64,0.155092,0.0310184
FPSB007_lot3_65,0.144250778,0.028850156
FPSB007_lot3_66,0.114722778,0.022944556
FPSB007_lot3_67,0.152999111,0.030599822
FPSB007_lot3_68,0.184291778,0.036858356
FPSB007_lot3_69,0.121499778,0.024299956
FPSB007_lot3_7,0.092705778,0.018541156
FPSB007_lot3_70,0.093723333,0.018744667
FPSB007_lot3_71,0.093009889,0.018601978
FPSB007_lot3_72,0.087617778,0.017523556
FPSB007_lot3_8,0.059660111,0.011932022
FPSB007_lot3_9,0.087223778,0.017444756
